<?xml version="1.0" encoding="UTF-8"?>
<!DOCTYPE X3D PUBLIC "ISO//Web3D//DTD X3D 3.0//EN" "http://www.web3d.org/specifications/x3d-3.0.dtd">
<X3D profile='Immersive' version='3.0' xmlns:xsd='http://www.w3.org/2001/XMLSchema-instance' xsd:noNamespaceSchemaLocation='http://www.web3d.org/specifications/x3d-3.0.xsd'>
  <Scene>
		<!-- Vertical Y arrow and label -->
		<Group DEF='ArrowGreen'>
      <Transform translation='0 1.25 0' rotation='0 0 1 -3.14159'>
        <Shape>
          <Cylinder DEF='ArrowCylinder' bottom='false' radius='.025' height='.5' top='false'/>
          <Appearance DEF='DistViva'>
            <Material diffuseColor='.1 1 1' emissiveColor='.05 .2 .2'/>
          </Appearance>
        </Shape>
        <Transform translation='0 0.25 0'>
          <Shape>
            <Cone DEF='ArrowCone' bottomRadius='.10' height='.1'/>
            <Appearance USE='DistViva'/>
          </Shape>
        </Transform>
      </Transform>
		</Group>

  </Scene>
</X3D>
